…
- average duration remains relatively consistent for members but peaks
  during the weekend for casual riders
- number of rides is at its highest during the middle of the week for
  members and highest for casuals on weekends  
    

#### Number of rides by hour

``` r
trip_data %>%
  group_by(member_casual, hour = hour(started_at))  %>% 
  summarise(number_of_rides = n()) 
```

    ## # A tibble: 48 x 3
    ## # Groups:   member_casual [2]
    ##    member_casual  hour number_of_rides
    ##    <chr>         <int>           <int>
    ##  1 casual            0           41135
    ##  2 casual            1           26784
    ##  3 casual            2           16343
    ##  4 casual            3            9567
    ##  5 casual            4            6706
    ##  6 casual            5           11949
    ##  7 casual            6           30952
    ##  8 casual            7           52583
    ##  9 casual            8           70390
    ## 10 casual            9           68597
    ## # i 38 more rows
…
### Ride duration by month

``` r
trip_data %>%
  group_by(member_casual, month)  %>%
  summarise(number_of_rides = n(),average_duration = mean(trip_duration)) 
```

    ## `summarise()` has grouped output by 'member_casual'. You can override using the
    ## `.groups` argument.

    ## # A tibble: 24 x 4
    ## # Groups:   member_casual [2]
    ##    member_casual month number_of_rides average_duration
    ##    <chr>         <ord>           <int>            <dbl>
    ##  1 casual        Jan             38270             14.3
    ##  2 casual        Feb             40821             16.3
    ##  3 casual        Mar             59181             15.7
    ##  4 casual        Apr            138397             20.2
    ##  5 casual        May            221086             22.2
    ##  6 casual        Jun            286252             22.0
    ##  7 casual        Jul            374991             22.4
    ##  8 casual        Aug            332594             20.7
    ##  9 casual        Sep            276868             19.7
    ## 10 casual        Oct            196374             17.9
    ## # i 14 more rows
…
